[gd_scene load_steps=5 format=2]

[ext_resource path="res://Scripts/Bumper.cs" type="Script" id=1]
[ext_resource path="res://sprites/bumper.png" type="Texture" id=2]

[sub_resource type="PhysicsMaterial" id=1]
bounce = 10.0

[sub_resource type="CircleShape2D" id=2]
radius = 64.3238

[node name="Bumper" type="RigidBody2D"]
collision_layer = 8
physics_material_override = SubResource( 1 )
contacts_reported = 2
contact_monitor = true
script = ExtResource( 1 )

[node name="Sprite" type="Sprite" parent="."]
texture = ExtResource( 2 )

[node name="CollisionShape2D" type="CollisionShape2D" parent="."]
shape = SubResource( 2 )
[connection signal="body_entered" from="." to="." method="OnBumperBodyEntered"]
