[gd_scene load_steps=4 format=2]

[ext_resource path="res://Scripts/Flipper.cs" type="Script" id=1]
[ext_resource path="res://sprites/fliiper_r.png" type="Texture" id=2]

[sub_resource type="RectangleShape2D" id=1]
extents = Vector2( 71.5645, 10 )

[node name="Flipper" type="KinematicBody2D"]
position = Vector2( 117.042, 70.7129 )
collision_layer = 16
script = ExtResource( 1 )
FlipSpeed = 20.0
RetractSpeed = 20.0

[node name="CollisionPolygon2D" type="CollisionPolygon2D" parent="."]
position = Vector2( 37.551, -23.6858 )
polygon = PoolVector2Array( 47.1411, 46.6115, 48.8054, 26.6395, -38.5023, 1.8941, -54.6607, 6.66751, -63.8614, 26.7655, -72.1362, 50.2176, -45.7842, 65.474 )

[node name="Sprite" type="Sprite" parent="."]
position = Vector2( 38.2022, -23.0519 )
texture = ExtResource( 2 )

[node name="ScoreArea" type="Area2D" parent="."]
collision_layer = 2

[node name="CollisionShape2D" type="CollisionShape2D" parent="ScoreArea"]
position = Vector2( 36.0904, -11.4433 )
rotation = 0.261799
scale = Vector2( 0.85, 1 )
shape = SubResource( 1 )
[connection signal="body_entered" from="ScoreArea" to="." method="OnScoreAreaEntered"]
