[gd_scene load_steps=5 format=2]

[ext_resource path="res://Scripts/Retry_Screen.cs" type="Script" id=1]


[sub_resource type="DynamicFontData" id=1]
font_path = "res://Fonts/Amble-Light.ttf"

[sub_resource type="DynamicFont" id=2]
size = 60
outline_size = 2
outline_color = Color( 0.694118, 0.462745, 0.254902, 1 )
use_filter = true
font_data = SubResource( 1 )

[sub_resource type="DynamicFont" id=3]
size = 30
outline_size = 2
outline_color = Color( 0.521569, 0.627451, 0.635294, 1 )
use_filter = true
font_data = SubResource( 1 )

[node name="Retry Screen" type="Control"]
margin_left = 126.0
margin_top = 169.0
margin_right = 517.0
margin_bottom = 415.0
script = ExtResource( 1 )

[node name="Background" type="ColorRect" parent="."]
margin_left = -8.5116
margin_top = 16.2494
margin_right = 406.488
margin_bottom = 272.249
color = Color( 1, 1, 1, 0.631373 )

[node name="Gameover Text" type="Label" parent="."]
margin_left = 62.0
margin_top = 29.0
margin_right = 340.0
margin_bottom = 101.0
custom_fonts/font = SubResource( 2 )
custom_colors/font_color = Color( 0, 0, 0, 1 )
text = "You Lost..."
align = 1

[node name="ScoreText" type="Label" parent="."]
margin_left = 109.226
margin_top = 95.092
margin_right = 278.226
margin_bottom = 137.092
custom_fonts/font = SubResource( 3 )
custom_colors/font_color = Color( 0, 0, 0, 1 )
text = "Final Score:"
align = 1

[node name="Score" type="Label" parent="."]
margin_left = 109.226
margin_top = 121.892
margin_right = 278.226
margin_bottom = 163.892
custom_fonts/font = SubResource( 3 )
custom_colors/font_color = Color( 0, 0, 0, 1 )
text = "00000000"
align = 1

[node name="Retry" type="Button" parent="."]
margin_left = 19.8921
margin_top = 179.196
margin_right = 378.892
margin_bottom = 212.196
text = "Retry"
[connection signal="pressed" from="Retry" to="." method="OnRetryPressed"]
