[gd_scene load_steps=2 format=2]

[ext_resource path="res://Scenes/Flipper.tscn" type="PackedScene" id=1]

[node name="Right Flipper" instance=ExtResource( 1 )]
RangeDegrees = -90.0
ControlString = "flip_right"

[node name="CollisionPolygon2D" parent="." index="0"]
position = Vector2( -39.729, -23.686 )
scale = Vector2( -1, 1 )

[node name="Sprite" parent="." index="1"]
position = Vector2( -41.1484, -22.3708 )
scale = Vector2( -1, 1 )

[node name="CollisionShape2D" parent="ScoreArea" index="0"]
position = Vector2( -34.8238, -13.0428 )
rotation = -0.261799
