; Engine configuration file.
; It's best edited using the editor UI and not directly,
; since the parameters that go here are not all obvious.
;
; Format:
;   [section] ; section goes between []
;   param=value ; assign values to parameters

config_version=4

_global_script_classes=[  ]
_global_script_class_icons={

}

[application]

config/name="Pinball Dreams"
run/main_scene="res://Scenes/Main.tscn"
config/icon="res://icon.png"

[display]

window/size/width=1100
window/size/height=1024

[input]

flip_left={
"deadzone": 0.5,
"events": [ Object(InputEventKey,"resource_local_to_scene":false,"resource_name":"","device":0,"alt":false,"shift":false,"control":false,"meta":false,"command":false,"pressed":false,"scancode":65,"unicode":0,"echo":false,"script":null)
 ]
}
flip_right={
"deadzone": 0.5,
"events": [ Object(InputEventKey,"resource_local_to_scene":false,"resource_name":"","device":0,"alt":false,"shift":false,"control":false,"meta":false,"command":false,"pressed":false,"scancode":68,"unicode":0,"echo":false,"script":null)
 ]
}
compress_launcher={
"deadzone": 0.5,
"events": [ Object(InputEventKey,"resource_local_to_scene":false,"resource_name":"","device":0,"alt":false,"shift":false,"control":false,"meta":false,"command":false,"pressed":false,"scancode":32,"unicode":0,"echo":false,"script":null)
 ]
}

[layer_names]

2d_render/layer_1="Ball"
2d_physics/layer_1="Ball"
2d_render/layer_2="Trigger"
2d_physics/layer_2="Trigger"
2d_render/layer_3="Walls"
2d_physics/layer_3="Walls"
2d_render/layer_4="Bumper"
2d_physics/layer_4="Bumper"
2d_render/layer_5="Flipper"
2d_physics/layer_5="Flipper"

[rendering]

environment/default_environment="res://default_env.tres"
